Absolute FT ages — age_ICP • laftr
…
    References

    Hasebe, N., Carter, A., Hurford, A.J., Arai, S., 2009. The effect of chemical etching on LA-ICP-MS analysis in determining uranium concentration for fission-track chronometry. Geol. Soc. Lond. Spec. Publ. 324 (1), 37--46. doi:10.1144/SP324.3

Vermeesch, Pieter, 2017. Statistics for LA-ICP-MS based fission track dating. Chem. Geol. 456, 19--27. doi:10.1016/j.chemgeo.2017.03.002

    Examples

data("sample")
age_ICP(sample, spotsize = 40, zeta = c(0.1188, 0.0119))
#> $data
#> # A tibble: 57 × 5
#>    Grain     Ns        U       sU comments            
#>    <chr>  <dbl>    <dbl>    <dbl> <chr>               
#>  1 FCT-1      7 0.000905 0.000016 NA                  
#>  2 FCT-2      1 0.000828 0.000017 broken grain        
#>  3 FCT-3      2 0.000774 0.000015 NA                  
#>  4 FCT-4      1 0.000416 0.000022 NA                  
#>  5 FCT-5      2 0.000724 0.000019 edge                
#>  6 FCT-6      1 0.000122 0.000013 NA                  
#>  7 FCT-7      3 0.000929 0.000032 small area, fracture
#>  8 FCT-8      2 0.000521 0.000023 NA                  
#>  9 FCT-9      4 0.000907 0.000025 edge, inclusion     
#> 10 FCT-10    NA 0.0005   0.00019  NA                  
#> # … with 47 more rows
…
