Zeta calibration coefficient for LA-ICP-MS fission track dating — zeta_ICP • laftr
…
    Value

    list containing: two-element vector with the session zeta and its standard error

    References

    Hasebe, N., Carter, A., Hurford, A.J., Arai, S., 2009. The effect of chemical etching on LA-ICP-MS analysis in determining uranium concentration for fission-track chronometry. Geol. Soc. Lond. Spec. Publ. 324 (1), 37–46. doi:10.1144/SP324.3

    Examples

data("standard")
zeta_ICP(standard, spotsize = 40, mineral = "apatite", standard = "Dur")
#> $data
#> # A tibble: 34 × 6
#>    Grain     Ns UO           U       sU comments
#>    <chr>  <dbl> <lgl>    <dbl>    <dbl> <lgl>   
#>  1 DUR-1      4 NA    0.000496 0.000016 NA      
#>  2 DUR-2      3 NA    0.00052  0.000018 NA      
#>  3 DUR-3      1 NA    0.000476 0.000014 NA      
#>  4 DUR-4      3 NA    0.000465 0.000014 NA      
#>  5 DUR-5      6 NA    0.000471 0.000012 NA      
#>  6 DUR-6      3 NA    0.000469 0.000014 NA      
#>  7 DUR-7      4 NA    0.000471 0.000013 NA      
#>  8 DUR-8      2 NA    0.000495 0.000016 NA      
#>  9 DUR-9      4 NA    0.000477 0.000018 NA      
#> 10 DUR-10     2 NA    0.000461 0.000015 NA      
#> # ℹ 24 more rows
…
